%feature("docstring") gum::NumericalDiscreteVariable
"
NumericalDiscreteVariable is a discrete random variable with a customizable sequence of float.

NumericalDiscreteVariable(aName, aDesc='', values=None) -> NumericalDiscreteVariable
    Parameters:
        - **aName** (str) -- the name of the variable
        - **aDesc** (str) -- the (optional) description of the variable
        - **values** (List[float]) -- the values to create

NumericalDiscreteVariable(aIDRV) -> NumericalDiscreteVariable
    Parameters:
        - **aIDRV** (*pyAgrum.NumericalDiscreteVariable*) -- The pyAgrum.NumericalDiscreteVariable that will be copied

Examples
--------
>>> import pyAgrum as gum
>>> # creating a variable with 3 values : 1.5,3.14,1.42
>>> va=gum.NumericalDiscreteVariable('a','a numerica variable',[1.5,3.14,1.42])
>>> print(va)
a:NumericalDiscrete({1.42|1.5|3.14})
>>> va.addValue(2.01)
(pyAgrum.NumericalDiscreteVariable@0x55ea157b8d60) a:NumericalDiscrete({1.42|1.5|2.01|3.14})
>>> va.changeValue(3.14,3.1415)
>>> print(va)
a:NumericalDiscrete({1.42|1.5|2.01|3.1415})
>>> vb=gum.NumericalDiscreteVariable('b','b').addValue(3.14).addValue(1.42).addValue(1.5)
>>> print(vb)
b:NumericalDiscrete({1.42|1.5|3.14})
>>> vb.labels()
('1.42', '1.5', '3.14')
"

%feature("docstring") gum::NumericalDiscreteVariable::numericalDomain
"
Returns
-------
list[float]
    the list of float values that form the domain of this variable
"


%feature("docstring") gum::NumericalDiscreteVariable::changeValue
"
Parameters
----------
old_value : int
    the value to be changed

new_value : int
    the new value
"

%feature("docstring") gum::NumericalDiscreteVariable::eraseValue
"
Parameters
----------
value: int
    the value to erase. If the value is not in the domain, the function does nothing (no exception raised)
"

%feature("docstring") gum::NumericalDiscreteVariable::eraseValues
"
Remove all the domain.
"


%feature("docstring") gum::NumericalDiscreteVariable::isValue
"
Parameters
----------
value: int
    the value to look at.

Returns
-------
bool
    True if the value is in the domain.
"
